riscv/test.vcd
$date
	Mon Nov 22 16:20:25 2021
$end
$version
	Icarus Verilog
$end
$timescale
	1ps
$end
$scope module testbench $end
$var reg 1 ! clk $end
$var reg 1 " rst $end
$scope module top $end
$var wire 1 ! EXCLK $end
$var wire 1 # Rx $end
$var wire 1 " btnC $end
$var wire 1 $ clk $end
$var wire 32 % cpu_dbgreg_dout [31:0] $end
$var wire 8 & hci_io_din [7:0] $end
$var wire 1 ' hci_io_wr $end
$var wire 8 ( hci_ram_din [7:0] $end
$var wire 1 ) led $end
$var wire 1 * ram_en $end
$var wire 8 + ram_dout [7:0] $end
$var wire 17 , ram_a [16:0] $end
$var wire 1 - program_finish $end
$var wire 1 . hci_ram_wr $end
$var wire 8 / hci_ram_dout [7:0] $end
$var wire 17 0 hci_ram_a [16:0] $end
$var wire 3 1 hci_io_sel [2:0] $end
$var wire 1 2 hci_io_full $end
$var wire 1 3 hci_io_en $end
$var wire 8 4 hci_io_dout [7:0] $end
$var wire 1 5 hci_active_out $end
$var wire 1 6 hci_active $end
$var wire 1 7 cpumc_wr $end
$var wire 8 8 cpumc_din [7:0] $end
$var wire 32 9 cpumc_a [31:0] $end
$var wire 1 : cpu_rdy $end
$var wire 1 ; cpu_ram_wr $end
$var wire 8 < cpu_ram_dout [7:0] $end
$var wire 8 = cpu_ram_din [7:0] $end
$var wire 32 > cpu_ram_a [31:0] $end
$var wire 1 ? Tx $end
$var reg 1 @ q_hci_io_en $end
$var reg 1 A rst $end
$var reg 1 B rst_delay $end
$scope module cpu0 $end
$var wire 1 $ clk_in $end
$var wire 32 C dbgreg_dout [31:0] $end
$var wire 8 D mem_din [7:0] $end
$var wire 1 : rdy_in $end
$var wire 1 E rst_in $end
$var wire 1 ; mem_wr $end
$var wire 8 F mem_dout [7:0] $end
$var wire 32 G mem_a [31:0] $end
$var wire 1 2 io_buffer_full $end
$scope module MemCtrl $end
$var wire 1 $ clk $end
$var wire 8 H mem_din [7:0] $end
$var wire 1 : rdy $end
$var wire 1 E rst $end
$var reg 32 I address [31:0] $end
$var reg 32 J data [31:0] $end
$var reg 1 K is_star $end
$var reg 32 L mem_a [31:0] $end
$var reg 8 M mem_dout [7:0] $end
$var reg 1 ; mem_wr $end
$var reg 3 N stage [2:0] $end
$upscope $end
$upscope $end
$scope module hci0 $end
$var wire 1 $ clk $end
$var wire 32 O cpu_dbgreg_din [31:0] $end
$var wire 8 P io_din [7:0] $end
$var wire 1 3 io_en $end
$var wire 1 2 io_full $end
$var wire 3 Q io_sel [2:0] $end
$var wire 1 ' io_wr $end
$var wire 17 R ram_a [16:0] $end
$var wire 8 S ram_din [7:0] $end
$var wire 8 T ram_dout [7:0] $end
$var wire 1 A rst $end
$var wire 1 # rx $end
$var wire 1 U tx_full $end
$var wire 1 ? tx $end
$var wire 1 V rx_empty $end
$var wire 8 W rd_data [7:0] $end
$var wire 1 X parity_err $end
$var wire 8 Y io_in_rd_data [7:0] $end
$var wire 1 Z io_in_full $end
$var wire 1 [ io_in_empty $end
$var wire 8 \ io_dout [7:0] $end
$var wire 32 ] d_cpu_cycle_cnt [31:0] $end
$var wire 1 5 active $end
$var reg 17 ^ d_addr [16:0] $end
$var reg 3 _ d_decode_cnt [2:0] $end
$var reg 2 ` d_err_code [1:0] $end
$var reg 17 a d_execute_cnt [16:0] $end
$var reg 8 b d_io_dout [7:0] $end
$var reg 8 c d_io_in_wr_data [7:0] $end
$var reg 1 d d_io_in_wr_en $end
$var reg 1 e d_program_finish $end
$var reg 5 f d_state [4:0] $end
$var reg 8 g d_tx_data [7:0] $end
$var reg 1 h d_wr_en $end
$var reg 1 i io_in_rd_en $end
$var reg 1 - program_finish $end
$var reg 17 j q_addr [16:0] $end
$var reg 32 k q_cpu_cycle_cnt [31:0] $end
$var reg 3 l q_decode_cnt [2:0] $end
$var reg 2 m q_err_code [1:0] $end
$var reg 17 n q_execute_cnt [16:0] $end
$var reg 8 o q_io_dout [7:0] $end
$var reg 1 p q_io_en $end
$var reg 8 q q_io_in_wr_data [7:0] $end
$var reg 1 r q_io_in_wr_en $end
$var reg 5 s q_state [4:0] $end
$var reg 8 t q_tx_data [7:0] $end
$var reg 1 u q_wr_en $end
$var reg 1 . ram_wr $end
$var reg 1 v rd_en $end
$scope module io_in_fifo $end
$var wire 10 w addr_bits_wide_1 [9:0] $end
$var wire 1 $ clk $end
$var wire 1 x d_empty $end
$var wire 1 y d_full $end
$var wire 1 [ empty $end
$var wire 1 Z full $end
$var wire 8 z rd_data [7:0] $end
$var wire 1 i rd_en $end
$var wire 1 { rd_en_prot $end
$var wire 1 A reset $end
$var wire 8 | wr_data [7:0] $end
$var wire 1 r wr_en $end
$var wire 1 } wr_en_prot $end
$var wire 10 ~ d_wr_ptr [9:0] $end
$var wire 10 !" d_rd_ptr [9:0] $end
$var wire 8 "" d_data [7:0] $end
$var reg 1 #" q_empty $end
$var reg 1 $" q_full $end
$var reg 10 %" q_rd_ptr [9:0] $end
$var reg 10 &" q_wr_ptr [9:0] $end
$upscope $end
$scope module uart_blk $end
$var wire 1 $ clk $end
$var wire 1 '" d_rx_parity_err $end
$var wire 1 X parity_err $end
$var wire 1 v rd_en $end
$var wire 1 A reset $end
$var wire 1 # rx $end
$var wire 8 (" tx_data [7:0] $end
$var wire 1 u wr_en $end
$var wire 1 U tx_full $end
$var wire 8 )" tx_fifo_rd_data [7:0] $end
$var wire 1 *" tx_fifo_empty $end
$var wire 1 +" tx_done_tick $end
$var wire 1 ? tx $end
$var wire 1 ," rx_parity_err $end
$var wire 8 -" rx_fifo_wr_data [7:0] $end
$var wire 1 V rx_empty $end
$var wire 1 ." rx_done_tick $end
$var wire 8 /" rx_data [7:0] $end
$var wire 1 0" baud_clk_tick $end
$var reg 1 1" q_rx_parity_err $end
$scope module uart_baud_clk_blk $end
$var wire 1 $ clk $end
$var wire 1 A reset $end
$var wire 16 2" d_cnt [15:0] $end
$var wire 1 0" baud_clk_tick $end
$var reg 16 3" q_cnt [15:0] $end
$upscope $end
$scope module uart_rx_blk $end
$var wire 1 0" baud_clk_tick $end
$var wire 1 $ clk $end
$var wire 1 A reset $end
$var wire 1 # rx $end
$var wire 8 4" rx_data [7:0] $end
$var wire 1 ." rx_done_tick $end
$var wire 1 ," parity_err $end
$var reg 8 5" d_data [7:0] $end
$var reg 3 6" d_data_bit_idx [2:0] $end
$var reg 1 7" d_done_tick $end
$var reg 4 8" d_oversample_tick_cnt [3:0] $end
$var reg 1 9" d_parity_err $end
$var reg 5 :" d_state [4:0] $end
$var reg 8 ;" q_data [7:0] $end
$var reg 3 <" q_data_bit_idx [2:0] $end
$var reg 1 ." q_done_tick $end
$var reg 4 =" q_oversample_tick_cnt [3:0] $end
$var reg 1 ," q_parity_err $end
$var reg 1 >" q_rx $end
$var reg 5 ?" q_state [4:0] $end
$upscope $end
$scope module uart_rx_fifo $end
$var wire 3 @" addr_bits_wide_1 [2:0] $end
$var wire 1 $ clk $end
$var wire 1 A" d_empty $end
$var wire 1 B" d_full $end
$var wire 1 V empty $end
$var wire 1 C" full $end
$var wire 8 D" rd_data [7:0] $end
$var wire 1 v rd_en $end
$var wire 1 E" rd_en_prot $end
$var wire 1 A reset $end
$var wire 8 F" wr_data [7:0] $end
$var wire 1 ." wr_en $end
$var wire 1 G" wr_en_prot $end
$var wire 3 H" d_wr_ptr [2:0] $end
$var wire 3 I" d_rd_ptr [2:0] $end
$var wire 8 J" d_data [7:0] $end
$var reg 1 K" q_empty $end
$var reg 1 L" q_full $end
$var reg 3 M" q_rd_ptr [2:0] $end
$var reg 3 N" q_wr_ptr [2:0] $end
$upscope $end
$scope module uart_tx_blk $end
$var wire 1 0" baud_clk_tick $end
$var wire 1 $ clk $end
$var wire 1 A reset $end
$var wire 1 ? tx $end
$var wire 1 +" tx_done_tick $end
$var wire 1 O" tx_start $end
$var wire 8 P" tx_data [7:0] $end
$var reg 4 Q" d_baud_clk_tick_cnt [3:0] $end
$var reg 8 R" d_data [7:0] $end
$var reg 3 S" d_data_bit_idx [2:0] $end
$var reg 1 T" d_parity_bit $end
$var reg 5 U" d_state [4:0] $end
$var reg 1 V" d_tx $end
$var reg 1 W" d_tx_done_tick $end
$var reg 4 X" q_baud_clk_tick_cnt [3:0] $end
$var reg 8 Y" q_data [7:0] $end
$var reg 3 Z" q_data_bit_idx [2:0] $end
$var reg 1 [" q_parity_bit $end
$var reg 5 \" q_state [4:0] $end
$var reg 1 ]" q_tx $end
$var reg 1 +" q_tx_done_tick $end
$upscope $end
$scope module uart_tx_fifo $end
$var wire 10 ^" addr_bits_wide_1 [9:0] $end
$var wire 1 $ clk $end
$var wire 1 _" d_empty $end
$var wire 1 `" d_full $end
$var wire 1 *" empty $end
$var wire 1 U full $end
$var wire 8 a" rd_data [7:0] $end
$var wire 1 +" rd_en $end
$var wire 1 b" rd_en_prot $end
$var wire 1 A reset $end
$var wire 8 c" wr_data [7:0] $end
$var wire 1 u wr_en $end
$var wire 1 d" wr_en_prot $end
$var wire 10 e" d_wr_ptr [9:0] $end
$var wire 10 f" d_rd_ptr [9:0] $end
$var wire 8 g" d_data [7:0] $end
$var reg 1 h" q_empty $end
$var reg 1 i" q_full $end
$var reg 10 j" q_rd_ptr [9:0] $end
$var reg 10 k" q_wr_ptr [9:0] $end
$upscope $end
$upscope $end
$upscope $end
$scope module ram0 $end
$var wire 17 l" a_in [16:0] $end
$var wire 1 $ clk_in $end
$var wire 8 m" d_in [7:0] $end
$var wire 1 * en_in $end
$var wire 1 n" r_nw_in $end
$var wire 1 o" ram_bram_we $end
$var wire 8 p" ram_bram_dout [7:0] $end
$var wire 8 q" d_out [7:0] $end
$scope module ram_bram $end
$var wire 17 r" addr_a [16:0] $end
$var wire 1 $ clk $end
$var wire 8 s" din_a [7:0] $end
$var wire 8 t" dout_a [7:0] $end
$var wire 1 o" we $end
$var reg 17 u" q_addr_a [16:0] $end
$var integer 32 v" i [31:0] $end
$upscope $end
$upscope $end
$upscope $end
$upscope $end
$enddefinitions $end
#0
$dumpvars
b100000000000000000 v"
bx u"
bx t"
b0 s"
b0 r"
bx q"
bx p"
0o"
1n"
b0 m"
b0 l"
bx k"
bx j"
xi"
xh"
bx g"
bx f"
bx e"
xd"
bx c"
0b"
bx a"
x`"
x_"
b1 ^"
1]"
b1 \"
0["
b0 Z"
b0 Y"
b0 X"
0W"
1V"
b1 U"
0T"
b0 S"
b0 R"
b0 Q"
bx P"
xO"
bx N"
bx M"
xL"
xK"
bx J"
bx I"
bx H"
0G"
b0 F"
0E"
bx D"
xC"
xB"
xA"
b1 @"
b1 ?"
1>"
b0 ="
b0 <"
b0 ;"
b1 :"
09"
b0 8"
07"
b0 6"
b0 5"
b0 4"
b0 3"
b1 2"
01"
00"
bx /"
0."
b0 -"
0,"
0+"
x*"
bx )"
bx ("
0'"
bx &"
bx %"
x$"
x#"
bx ""
bx !"
bx ~
x}
bx |
0{
bx z
xy
xx
b1 w
0v
xu
bx t
bx s
xr
bx q
xp
bx o
bx n
bx m
bx l
bx k
bx j
0i
0h
b0 g
bx f
0e
0d
b0 c
b0 b
bx a
bx `
bx _
bx ^
bx ]
bx \
x[
xZ
bx Y
0X
bx W
xV
xU
bx T
bx S
bx R
b0 Q
b0 P
bz O
bx N
b0 M
b0 L
0K
bx J
b0 I
bx H
b0 G
b0 F
1E
bx D
bz C
1B
1A
x@
1?
b0 >
bx =
b0 <
0;
1:
b0 9
b0 8
07
06
x5
bx 4
03
x2
b0 1
bx 0
bx /
0.
x-
b0 ,
bx +
1*
0)
bx (
0'
b0 &
bz %
0$
z#
1"
0!
$end
#1000
b110111 =
b110111 D
b110111 H
1x
0y
0B"
1A"
1_"
0`"
b110111 (
b110111 S
b110111 +
b110111 q"
b0 ~
b0 !"
b0 H"
b0 I"
0O"
b0 e"
b0 f"
0}
0d"
b0 `
b0 ^
b0 a
b0 _
b1 f
b0 ]
b0 N
b110111 p"
b110111 t"
b0 u"
0Z
0$"
1[
1#"
b0 &"
b0 %"
0C"
0L"
1V
1K"
b0 N"
b0 M"
02
0U
0i"
1*"
1h"
b0 k"
b0 j"
b0 4
b0 \
b0 o
b0 k
0p
b0 q
b0 |
0r
0u
b0 t
b0 ("
b0 c"
b0 m
b0 0
b0 R
b0 j
b0 n
b0 l
15
b1 s
0@
1$
1!
#2000
0$
0!
#3000
1$
1!
#4000
0$
0!
#5000
1$
1!
#6000
0$
0!
#7000
1$
1!
#8000
0$
0!
#9000
1$
1!
#10000
0$
0!
#11000
1$
1!
#12000
0$
0!
#13000
1$
1!
#14000
0$
0!
#15000
1$
1!
#16000
0$
0!
#17000
1$
1!
#18000
0$
0!
#19000
1$
1!
#20000
0$
0!
#21000
1$
1!
#22000
0$
0!
#23000
1$
1!
#24000
0$
0!
#25000
1$
1!
#26000
0$
0!
#27000
1$
1!
#28000
0$
0!
#29000
1$
1!
#30000
0$
0!
#31000
1$
1!
#32000
0$
0!
#33000
1$
1!
#34000
0$
0!
#35000
1$
1!
#36000
0$
0!
#37000
1$
1!
#38000
0$
0!
#39000
1$
1!
#40000
0$
0!
#41000
1$
1!
#42000
0$
0!
#43000
1$
1!
#44000
0$
0!
#45000
1$
1!
#46000
0$
0!
#47000
1$
1!
#48000
0$
0!
#49000
1$
1!
#50000
0"
0$
0!
#51000
0B
1$
1!
#52000
0$
0!
#53000
b1 1
b1 Q
b1 ,
b1 l"
b1 r"
b1 9
b1 >
b1 G
b1 L
b1 N
1K
xE
0A
1$
1!
#54000
0$
0!
#55000
b1 =
b1 D
b1 H
0E
b1 (
b1 S
b1 +
b1 q"
b10 2"
bx0000000100110111 J
0-
b1 p"
b1 t"
b1 u"
b1 3"
z>"
b11 1
b11 Q
b11 ,
b11 l"
b11 r"
b11 9
b11 >
b11 G
b11 L
b11 N
1$
1!
#56000
0$
0!
#57000
b0 =
b0 D
b0 H
b0 (
b0 S
b0 +
b0 q"
b11 2"
bx000000010000000100110111 J
b0 p"
b0 t"
b11 u"
b10 3"
b0 1
b0 Q
b0 ,
b0 l"
b0 r"
b0 9
b0 >
b0 G
b0 L
b100 N
1$
1!
#58000
0$
0!
#59000
b100 1
b100 Q
b100 ,
b100 l"
b100 r"
b100 9
b110111 =
b110111 D
b110111 H
b100 >
b100 G
b100 L
b110111 (
b110111 S
b110111 +
b110111 q"
b100 2"
b100 I
b10000000100110111 J
b110111 p"
b110111 t"
b0 u"
b11 3"
b0 N
1$
1!
#60000
0$
0!
#61000
b11101111 =
b11101111 D
b11101111 H
b11101111 (
b11101111 S
b11101111 +
b11101111 q"
b101 2"
b11101111 p"
b11101111 t"
b100 u"
b100 3"
b101 1
b101 Q
b101 ,
b101 l"
b101 r"
b101 9
b101 >
b101 G
b101 L
b1 N
1$
1!
#62000
0$
0!
#63000
b10000 =
b10000 D
b10000 H
b10000 (
b10000 S
b10000 +
b10000 q"
b110 2"
b10000000111101111 J
b10000 p"
b10000 t"
b101 u"
b101 3"
b110 1
b110 Q
b110 ,
b110 l"
b110 r"
b110 9
b110 >
b110 G
b110 L
b10 N
1$
1!
#64000
0$
0!
#65000
b0 =
b0 D
b0 H
b0 (
b0 S
b0 +
b0 q"
b111 2"
b10001000011101111 J
b0 p"
b0 t"
b110 u"
b110 3"
b111 1
b111 Q
b111 ,
b111 l"
b111 r"
b111 9
b111 >
b111 G
b111 L
b11 N
1$
1!
#66000
0$
0!
#67000
b1011 =
b1011 D
b1011 H
b1011 (
b1011 S
b1011 +
b1011 q"
b1000 2"
b1000011101111 J
b1011 p"
b1011 t"
b111 u"
b111 3"
b0 1
b0 Q
b0 ,
b0 l"
b0 r"
b0 9
b0 >
b0 G
b0 L
b100 N
1$
1!
#68000
0$
0!
#69000
b110111 =
b110111 D
b110111 H
b110111 (
b110111 S
b110111 +
b110111 q"
b1001 2"
b1000 I
b1011000000000001000011101111 J
b110111 p"
b110111 t"
b0 u"
b1000 3"
b0 1
b0 Q
b1000 ,
b1000 l"
b1000 r"
b1000 9
b1000 >
b1000 G
b1000 L
b0 N
1$
1!
#70000
0$
0!
#71000
b10011 =
b10011 D
b10011 H
b10011 (
b10011 S
b10011 +
b10011 q"
b1010 2"
b10011 p"
b10011 t"
b1000 u"
b1001 3"
b1 1
b1 Q
b1001 ,
b1001 l"
b1001 r"
b1001 9
b1001 >
b1001 G
b1001 L
b1 N
1$
1!
#72000
0$
0!
#73000
b101 =
b101 D
b101 H
b101 (
b101 S
b101 +
b101 q"
b1011 2"
b1011000000000001000000010011 J
b101 p"
b101 t"
b1001 u"
b1010 3"
b10 1
b10 Q
b1010 ,
b1010 l"
b1010 r"
b1010 9
b1010 >
b1010 G
b1010 L
b10 N
1$
1!
#74000
0$
0!
#75000
b11110000 =
b11110000 D
b11110000 H
b11110000 (
b11110000 S
b11110000 +
b11110000 q"
b1100 2"
b1011000000000000010100010011 J
b11110000 p"
b11110000 t"
b1010 u"
b1011 3"
b11 1
b11 Q
b1011 ,
b1011 l"
b1011 r"
b1011 9
b1011 >
b1011 G
b1011 L
b11 N
1$
1!
#76000
0$
0!
#77000
b1111 =
b1111 D
b1111 H
b1111 (
b1111 S
b1111 +
b1111 q"
b1101 2"
b1011111100000000010100010011 J
b1111 p"
b1111 t"
b1011 u"
b1100 3"
b0 1
b0 Q
b0 ,
b0 l"
b0 r"
b0 9
b0 >
b0 G
b0 L
b100 N
1$
1!
#78000
0$
0!
#79000
b100 1
b100 Q
b110111 =
b110111 D
b110111 H
b110111 (
b110111 S
b110111 +
b110111 q"
b1110 2"
b1100 I
b1111111100000000010100010011 J
b110111 p"
b110111 t"
b0 u"
b1101 3"
b1100 ,
b1100 l"
b1100 r"
b1100 9
b1100 >
b1100 G
b1100 L
b0 N
1$
1!
#80000
0$
0!
#81000
b10110111 =
b10110111 D
b10110111 H
b10110111 (
b10110111 S
b10110111 +
b10110111 q"
b1111 2"
b10110111 p"
b10110111 t"
b1100 u"
b1110 3"
b101 1
b101 Q
b1101 ,
b1101 l"
b1101 r"
b1101 9
b1101 >
b1101 G
b1101 L
b1 N
1$
1!
#82000
0$
0!
#83000
b110 =
b110 D
b110 H
b110 (
b110 S
b110 +
b110 q"
b10000 2"
b1111111100000000010110110111 J
b110 p"
b110 t"
b1101 u"
b1111 3"
b110 1
b110 Q
b1110 ,
b1110 l"
b1110 r"
b1110 9
b1110 >
b1110 G
b1110 L
b10 N
1$
1!
#84000
0$
0!
#85000
b11 =
b11 D
b11 H
b11 (
b11 S
b11 +
b11 q"
b10001 2"
b1111111100000000011010110111 J
b11 p"
b11 t"
b1110 u"
b10000 3"
b111 1
b111 Q
b1111 ,
b1111 l"
b1111 r"
b1111 9
b1111 >
b1111 G
b1111 L
b11 N
1$
1!
#86000
0$
0!
#87000
b0 =
b0 D
b0 H
b0 (
b0 S
b0 +
b0 q"
b10010 2"
b1111000000110000011010110111 J
b0 p"
b0 t"
b1111 u"
b10001 3"
b0 1
b0 Q
b0 ,
b0 l"
b0 r"
b0 9
b0 >
b0 G
b0 L
b100 N
1$
1!
#88000
0$
0!
#89000
b110111 =
b110111 D
b110111 H
b110111 (
b110111 S
b110111 +
b110111 q"
b10011 2"
b10000 I
b110000011010110111 J
b110111 p"
b110111 t"
b0 u"
b10010 3"
b0 1
b0 Q
b10000 ,
b10000 l"
b10000 r"
b10000 9
b10000 >
b10000 G
b10000 L
b0 N
1$
1!
#90000
0$
0!
#91000
b100011 =
b100011 D
b100011 H
b100011 (
b100011 S
b100011 +
b100011 q"
b10100 2"
b100011 p"
b100011 t"
b10000 u"
b10011 3"
b1 1
b1 Q
b10001 ,
b10001 l"
b10001 r"
b10001 9
b10001 >
b10001 G
b10001 L
b1 N
1$
1!
#92000
0$
0!
#93000
b10000010 =
b10000010 D
b10000010 H
b10000010 (
b10000010 S
b10000010 +
b10000010 q"
b10101 2"
b110000011000100011 J
b10000010 p"
b10000010 t"
b10001 u"
b10100 3"
b10 1
b10 Q
b10010 ,
b10010 l"
b10010 r"
b10010 9
b10010 >
b10010 G
b10010 L
b10 N
1$
1!
#94000
0$
0!
#95000
b10100110 =
b10100110 D
b10100110 H
b10100110 (
b10100110 S
b10100110 +
b10100110 q"
b10110 2"
b111000001000100011 J
b10100110 p"
b10100110 t"
b10010 u"
b10101 3"
b11 1
b11 Q
b10011 ,
b10011 l"
b10011 r"
b10011 9
b10011 >
b10011 G
b10011 L
b11 N
1$
1!
#96000
0$
0!
#97000
b0 =
b0 D
b0 H
b0 (
b0 S
b0 +
b0 q"
b10111 2"
b101001101000001000100011 J
b0 p"
b0 t"
b10011 u"
b10110 3"
b0 1
b0 Q
b0 ,
b0 l"
b0 r"
b0 9
b0 >
b0 G
b0 L
b100 N
1$
1!
#98000
0$
0!
#99000
b100 1
b100 Q
b110111 =
b110111 D
b110111 H
b110111 (
b110111 S
b110111 +
b110111 q"
b11000 2"
b10100 I
b110111 p"
b110111 t"
b0 u"
b10111 3"
b10100 ,
b10100 l"
b10100 r"
b10100 9
b10100 >
b10100 G
b10100 L
b0 N
1$
1!
#100000
0$
0!
#101000
b1101111 =
b1101111 D
b1101111 H
b1101111 (
b1101111 S
b1101111 +
b1101111 q"
b11001 2"
b1101111 p"
b1101111 t"
b10100 u"
b11000 3"
b101 1
b101 Q
b10101 ,
b10101 l"
b10101 r"
b10101 9
b10101 >
b10101 G
b10101 L
b1 N
1$
1!
#102000
0$
0!
#103000
b11110000 =
b11110000 D
b11110000 H
b11110000 (
b11110000 S
b11110000 +
b11110000 q"
b11010 2"
b101001101000001001101111 J
b11110000 p"
b11110000 t"
b10101 u"
b11001 3"
b110 1
b110 Q
b10110 ,
b10110 l"
b10110 r"
b10110 9
b10110 >
b10110 G
b10110 L
b10 N
1$
1!
#104000
0$
0!
#105000
b10011111 =
b10011111 D
b10011111 H
b10011111 (
b10011111 S
b10011111 +
b10011111 q"
b11011 2"
b101001101111000001101111 J
b10011111 p"
b10011111 t"
b10110 u"
b11010 3"
b111 1
b111 Q
b10111 ,
b10111 l"
b10111 r"
b10111 9
b10111 >
b10111 G
b10111 L
b11 N
1$
1!
#106000
0$
0!
#107000
b11111111 =
b11111111 D
b11111111 H
b11111111 (
b11111111 S
b11111111 +
b11111111 q"
b11100 2"
b100111111111000001101111 J
b11111111 p"
b11111111 t"
b10111 u"
b11011 3"
b0 1
b0 Q
b0 ,
b0 l"
b0 r"
b0 9
b0 >
b0 G
b0 L
b100 N
1$
1!
#108000
0$
0!
#109000
b110111 =
b110111 D
b110111 H
b110111 (
b110111 S
b110111 +
b110111 q"
b11101 2"
b11000 I
b11111111100111111111000001101111 J
b110111 p"
b110111 t"
b0 u"
b11100 3"
b0 1
b0 Q
b11000 ,
b11000 l"
b11000 r"
b11000 9
b11000 >
b11000 G
b11000 L
b0 N
1$
1!
#110000
0$
0!
#111000
b0 =
b0 D
b0 H
b0 (
b0 S
b0 +
b0 q"
b11110 2"
b0 p"
b0 t"
b11000 u"
b11101 3"
b1 1
b1 Q
b11001 ,
b11001 l"
b11001 r"
b11001 9
b11001 >
b11001 G
b11001 L
b1 N
1$
1!
#112000
0$
0!
#113000
b11111 2"
b11111111100111111111000000000000 J
b11001 u"
b11110 3"
b10 1
b10 Q
b11010 ,
b11010 l"
b11010 r"
b11010 9
b11010 >
b11010 G
b11010 L
b10 N
1$
1!
#114000
0$
0!
#115000
b100000 2"
b11111111100111110000000000000000 J
b11010 u"
b11111 3"
b11 1
b11 Q
b11011 ,
b11011 l"
b11011 r"
b11011 9
b11011 >
b11011 G
b11011 L
b11 N
1$
1!
#116000
0$
0!
#117000
b100001 2"
b11111111000000000000000000000000 J
b11011 u"
b100000 3"
b0 1
b0 Q
b0 ,
b0 l"
b0 r"
b0 9
b0 >
b0 G
b0 L
b100 N
1$
1!
#118000
0$
0!
#119000
b100 1
b100 Q
b110111 =
b110111 D
b110111 H
b110111 (
b110111 S
b110111 +
b110111 q"
b100010 2"
b11100 I
b0 J
b110111 p"
b110111 t"
b0 u"
b100001 3"
b11100 ,
b11100 l"
b11100 r"
b11100 9
b11100 >
b11100 G
b11100 L
b0 N
1$
1!
#120000
0$
0!
#121000
b0 =
b0 D
b0 H
b0 (
b0 S
b0 +
b0 q"
b100011 2"
b0 p"
b0 t"
b11100 u"
b100010 3"
b101 1
b101 Q
b11101 ,
b11101 l"
b11101 r"
b11101 9
b11101 >
b11101 G
b11101 L
b1 N
1$
1!
#122000
0$
0!
#123000
b100100 2"
b11101 u"
b100011 3"
b110 1
b110 Q
b11110 ,
b11110 l"
b11110 r"
b11110 9
b11110 >
b11110 G
b11110 L
b10 N
1$
1!
#124000
0$
0!
#125000
b100101 2"
b11110 u"
b100100 3"
b111 1
b111 Q
b11111 ,
b11111 l"
b11111 r"
b11111 9
b11111 >
b11111 G
b11111 L
b11 N
1$
1!
#126000
0$
0!
#127000
b100110 2"
b11111 u"
b100101 3"
b0 1
b0 Q
b0 ,
b0 l"
b0 r"
b0 9
b0 >
b0 G
b0 L
b100 N
1$
1!
#128000
0$
0!
#129000
b110111 =
b110111 D
b110111 H
b110111 (
b110111 S
b110111 +
b110111 q"
b100111 2"
b100000 I
b110111 p"
b110111 t"
b0 u"
b100110 3"
b0 1
b0 Q
b100000 ,
b100000 l"
b100000 r"
b100000 9
b100000 >
b100000 G
b100000 L
b0 N
1$
1!
#130000
0$
0!
#131000
b0 =
b0 D
b0 H
b0 (
b0 S
b0 +
b0 q"
b101000 2"
b0 p"
b0 t"
b100000 u"
b100111 3"
b1 1
b1 Q
b100001 ,
b100001 l"
b100001 r"
b100001 9
b100001 >
b100001 G
b100001 L
b1 N
1$
1!
#132000
0$
0!
#133000
b101001 2"
b100001 u"
b101000 3"
b10 1
b10 Q
b100010 ,
b100010 l"
b100010 r"
b100010 9
b100010 >
b100010 G
b100010 L
b10 N
1$
1!
#134000
0$
0!
#135000
b101010 2"
b100010 u"
b101001 3"
b11 1
b11 Q
b100011 ,
b100011 l"
b100011 r"
b100011 9
b100011 >
b100011 G
b100011 L
b11 N
1$
1!
#136000
0$
0!
#137000
b101011 2"
b100011 u"
b101010 3"
b0 1
b0 Q
b0 ,
b0 l"
b0 r"
b0 9
b0 >
b0 G
b0 L
b100 N
1$
1!
#138000
0$
0!
#139000
b100 1
b100 Q
b110111 =
b110111 D
b110111 H
b110111 (
b110111 S
b110111 +
b110111 q"
b101100 2"
b100100 I
b110111 p"
b110111 t"
b0 u"
b101011 3"
b100100 ,
b100100 l"
b100100 r"
b100100 9
b100100 >
b100100 G
b100100 L
b0 N
1$
1!
#140000
0$
0!
#141000
b0 =
b0 D
b0 H
b0 (
b0 S
b0 +
b0 q"
b101101 2"
b0 p"
b0 t"
b100100 u"
b101100 3"
b101 1
b101 Q
b100101 ,
b100101 l"
b100101 r"
b100101 9
b100101 >
b100101 G
b100101 L
b1 N
1$
1!
#142000
0$
0!
#143000
b101110 2"
b100101 u"
b101101 3"
b110 1
b110 Q
b100110 ,
b100110 l"
b100110 r"
b100110 9
b100110 >
b100110 G
b100110 L
b10 N
1$
1!
#144000
0$
0!
#145000
b101111 2"
b100110 u"
b101110 3"
b111 1
b111 Q
b100111 ,
b100111 l"
b100111 r"
b100111 9
b100111 >
b100111 G
b100111 L
b11 N
1$
1!
#146000
0$
0!
#147000
b110000 2"
b100111 u"
b101111 3"
b0 1
b0 Q
b0 ,
b0 l"
b0 r"
b0 9
b0 >
b0 G
b0 L
b100 N
1$
1!
#148000
0$
0!
#149000
b110111 =
b110111 D
b110111 H
b110111 (
b110111 S
b110111 +
b110111 q"
b110001 2"
b101000 I
b110111 p"
b110111 t"
b0 u"
b110000 3"
b0 1
b0 Q
b101000 ,
b101000 l"
b101000 r"
b101000 9
b101000 >
b101000 G
b101000 L
b0 N
1$
1!
#150000
0$
0!
#151000
b0 =
b0 D
b0 H
b0 (
b0 S
b0 +
b0 q"
b110010 2"
b0 p"
b0 t"
b101000 u"
b110001 3"
b1 1
b1 Q
b101001 ,
b101001 l"
b101001 r"
b101001 9
b101001 >
b101001 G
b101001 L
b1 N
1$
1!
#152000
0$
0!
#153000
b110011 2"
b101001 u"
b110010 3"
b10 1
b10 Q
b101010 ,
b101010 l"
b101010 r"
b101010 9
b101010 >
b101010 G
b101010 L
b10 N
1$
1!
#154000
0$
0!
#155000
b110100 2"
b101010 u"
b110011 3"
b11 1
b11 Q
b101011 ,
b101011 l"
b101011 r"
b101011 9
b101011 >
b101011 G
b101011 L
b11 N
1$
1!
#156000
0$
0!
#157000
b110101 2"
b101011 u"
b110100 3"
b0 1
b0 Q
b0 ,
b0 l"
b0 r"
b0 9
b0 >
b0 G
b0 L
b100 N
1$
1!
#158000
0$
0!
#159000
b100 1
b100 Q
b110111 =
b110111 D
b110111 H
b1 8"
b1 Q"
b110111 (
b110111 S
b110111 +
b110111 q"
b0 2"
10"
b101100 I
b110111 p"
b110111 t"
b0 u"
b110101 3"
b101100 ,
b101100 l"
b101100 r"
b101100 9
b101100 >
b101100 G
b101100 L
b0 N
1$
1!
#160000
0$
0!
#161000
b0 =
b0 D
b0 H
b0 (
b0 S
b0 +
b0 q"
b1 2"
00"
b0 p"
b0 t"
b101100 u"
b1 X"
b1 ="
b0 3"
b101 1
b101 Q
b101101 ,
b101101 l"
b101101 r"
b101101 9
b101101 >
b101101 G
b101101 L
b1 N
1$
1!
#162000
0$
0!
#163000
b10 2"
b101101 u"
b1 3"
b110 1
b110 Q
b101110 ,
b101110 l"
b101110 r"
b101110 9
b101110 >
b101110 G
b101110 L
b10 N
1$
1!
#164000
0$
0!
#165000
b11 2"
b101110 u"
b10 3"
b111 1
b111 Q
b101111 ,
b101111 l"
b101111 r"
b101111 9
b101111 >
b101111 G
b101111 L
b11 N
1$
1!
#166000
0$
0!
