riscv/test.vcd
$date
	Sun Nov 21 23:01:48 2021
$end
$version
	Icarus Verilog
$end
$timescale
	1ps
$end
$scope module testbench $end
$var reg 1 ! clk $end
$var reg 1 " rst $end
$scope module top $end
$var wire 1 ! EXCLK $end
$var wire 1 # Rx $end
$var wire 1 " btnC $end
$var wire 1 $ clk $end
$var wire 32 % cpu_dbgreg_dout [31:0] $end
$var wire 8 & hci_io_din [7:0] $end
$var wire 1 ' hci_io_wr $end
$var wire 8 ( hci_ram_din [7:0] $end
$var wire 1 ) led $end
$var wire 1 * ram_en $end
$var wire 8 + ram_dout [7:0] $end
$var wire 17 , ram_a [16:0] $end
$var wire 1 - program_finish $end
$var wire 1 . hci_ram_wr $end
$var wire 8 / hci_ram_dout [7:0] $end
$var wire 17 0 hci_ram_a [16:0] $end
$var wire 3 1 hci_io_sel [2:0] $end
$var wire 1 2 hci_io_full $end
$var wire 1 3 hci_io_en $end
$var wire 8 4 hci_io_dout [7:0] $end
$var wire 1 5 hci_active_out $end
$var wire 1 6 hci_active $end
$var wire 1 7 cpumc_wr $end
$var wire 8 8 cpumc_din [7:0] $end
$var wire 32 9 cpumc_a [31:0] $end
$var wire 1 : cpu_rdy $end
$var wire 1 ; cpu_ram_wr $end
$var wire 8 < cpu_ram_dout [7:0] $end
$var wire 8 = cpu_ram_din [7:0] $end
$var wire 32 > cpu_ram_a [31:0] $end
$var wire 1 ? Tx $end
$var reg 1 @ q_hci_io_en $end
$var reg 1 A rst $end
$var reg 1 B rst_delay $end
$scope module cpu0 $end
$var wire 1 $ clk_in $end
$var wire 32 C dbgreg_dout [31:0] $end
$var wire 8 D mem_din [7:0] $end
$var wire 1 : rdy_in $end
$var wire 1 E rst_in $end
$var wire 1 ; mem_wr $end
$var wire 8 F mem_dout [7:0] $end
$var wire 32 G mem_a [31:0] $end
$var wire 1 2 io_buffer_full $end
$scope module MemCtrl $end
$var wire 1 $ clk $end
$var wire 8 H mem_din [7:0] $end
$var wire 1 : rdy $end
$var wire 1 E rst $end
$var reg 32 I address [31:0] $end
$var reg 32 J data [31:0] $end
$var reg 32 K mem_a [31:0] $end
$var reg 8 L mem_dout [7:0] $end
$var reg 1 ; mem_wr $end
$var reg 3 M stage [2:0] $end
$upscope $end
$upscope $end
$scope module hci0 $end
$var wire 1 $ clk $end
$var wire 32 N cpu_dbgreg_din [31:0] $end
$var wire 8 O io_din [7:0] $end
$var wire 1 3 io_en $end
$var wire 1 2 io_full $end
$var wire 3 P io_sel [2:0] $end
$var wire 1 ' io_wr $end
$var wire 17 Q ram_a [16:0] $end
$var wire 8 R ram_din [7:0] $end
$var wire 8 S ram_dout [7:0] $end
$var wire 1 A rst $end
$var wire 1 # rx $end
$var wire 1 T tx_full $end
$var wire 1 ? tx $end
$var wire 1 U rx_empty $end
$var wire 8 V rd_data [7:0] $end
$var wire 1 W parity_err $end
$var wire 8 X io_in_rd_data [7:0] $end
$var wire 1 Y io_in_full $end
$var wire 1 Z io_in_empty $end
$var wire 8 [ io_dout [7:0] $end
$var wire 32 \ d_cpu_cycle_cnt [31:0] $end
$var wire 1 5 active $end
$var reg 17 ] d_addr [16:0] $end
$var reg 3 ^ d_decode_cnt [2:0] $end
$var reg 2 _ d_err_code [1:0] $end
$var reg 17 ` d_execute_cnt [16:0] $end
$var reg 8 a d_io_dout [7:0] $end
$var reg 8 b d_io_in_wr_data [7:0] $end
$var reg 1 c d_io_in_wr_en $end
$var reg 1 d d_program_finish $end
$var reg 5 e d_state [4:0] $end
$var reg 8 f d_tx_data [7:0] $end
$var reg 1 g d_wr_en $end
$var reg 1 h io_in_rd_en $end
$var reg 1 - program_finish $end
$var reg 17 i q_addr [16:0] $end
$var reg 32 j q_cpu_cycle_cnt [31:0] $end
$var reg 3 k q_decode_cnt [2:0] $end
$var reg 2 l q_err_code [1:0] $end
$var reg 17 m q_execute_cnt [16:0] $end
$var reg 8 n q_io_dout [7:0] $end
$var reg 1 o q_io_en $end
$var reg 8 p q_io_in_wr_data [7:0] $end
$var reg 1 q q_io_in_wr_en $end
$var reg 5 r q_state [4:0] $end
$var reg 8 s q_tx_data [7:0] $end
$var reg 1 t q_wr_en $end
$var reg 1 . ram_wr $end
$var reg 1 u rd_en $end
$scope module io_in_fifo $end
$var wire 10 v addr_bits_wide_1 [9:0] $end
$var wire 1 $ clk $end
$var wire 1 w d_empty $end
$var wire 1 x d_full $end
$var wire 1 Z empty $end
$var wire 1 Y full $end
$var wire 8 y rd_data [7:0] $end
$var wire 1 h rd_en $end
$var wire 1 z rd_en_prot $end
$var wire 1 A reset $end
$var wire 8 { wr_data [7:0] $end
$var wire 1 q wr_en $end
$var wire 1 | wr_en_prot $end
$var wire 10 } d_wr_ptr [9:0] $end
$var wire 10 ~ d_rd_ptr [9:0] $end
$var wire 8 !" d_data [7:0] $end
$var reg 1 "" q_empty $end
$var reg 1 #" q_full $end
$var reg 10 $" q_rd_ptr [9:0] $end
$var reg 10 %" q_wr_ptr [9:0] $end
$upscope $end
$scope module uart_blk $end
$var wire 1 $ clk $end
$var wire 1 &" d_rx_parity_err $end
$var wire 1 W parity_err $end
$var wire 1 u rd_en $end
$var wire 1 A reset $end
$var wire 1 # rx $end
$var wire 8 '" tx_data [7:0] $end
$var wire 1 t wr_en $end
$var wire 1 T tx_full $end
$var wire 8 (" tx_fifo_rd_data [7:0] $end
$var wire 1 )" tx_fifo_empty $end
$var wire 1 *" tx_done_tick $end
$var wire 1 ? tx $end
$var wire 1 +" rx_parity_err $end
$var wire 8 ," rx_fifo_wr_data [7:0] $end
$var wire 1 U rx_empty $end
$var wire 1 -" rx_done_tick $end
$var wire 8 ." rx_data [7:0] $end
$var wire 1 /" baud_clk_tick $end
$var reg 1 0" q_rx_parity_err $end
$scope module uart_baud_clk_blk $end
$var wire 1 $ clk $end
$var wire 1 A reset $end
$var wire 16 1" d_cnt [15:0] $end
$var wire 1 /" baud_clk_tick $end
$var reg 16 2" q_cnt [15:0] $end
$upscope $end
$scope module uart_rx_blk $end
$var wire 1 /" baud_clk_tick $end
$var wire 1 $ clk $end
$var wire 1 A reset $end
$var wire 1 # rx $end
$var wire 8 3" rx_data [7:0] $end
$var wire 1 -" rx_done_tick $end
$var wire 1 +" parity_err $end
$var reg 8 4" d_data [7:0] $end
$var reg 3 5" d_data_bit_idx [2:0] $end
$var reg 1 6" d_done_tick $end
$var reg 4 7" d_oversample_tick_cnt [3:0] $end
$var reg 1 8" d_parity_err $end
$var reg 5 9" d_state [4:0] $end
$var reg 8 :" q_data [7:0] $end
$var reg 3 ;" q_data_bit_idx [2:0] $end
$var reg 1 -" q_done_tick $end
$var reg 4 <" q_oversample_tick_cnt [3:0] $end
$var reg 1 +" q_parity_err $end
$var reg 1 =" q_rx $end
$var reg 5 >" q_state [4:0] $end
$upscope $end
$scope module uart_rx_fifo $end
$var wire 3 ?" addr_bits_wide_1 [2:0] $end
$var wire 1 $ clk $end
$var wire 1 @" d_empty $end
$var wire 1 A" d_full $end
$var wire 1 U empty $end
$var wire 1 B" full $end
$var wire 8 C" rd_data [7:0] $end
$var wire 1 u rd_en $end
$var wire 1 D" rd_en_prot $end
$var wire 1 A reset $end
$var wire 8 E" wr_data [7:0] $end
$var wire 1 -" wr_en $end
$var wire 1 F" wr_en_prot $end
$var wire 3 G" d_wr_ptr [2:0] $end
$var wire 3 H" d_rd_ptr [2:0] $end
$var wire 8 I" d_data [7:0] $end
$var reg 1 J" q_empty $end
$var reg 1 K" q_full $end
$var reg 3 L" q_rd_ptr [2:0] $end
$var reg 3 M" q_wr_ptr [2:0] $end
$upscope $end
$scope module uart_tx_blk $end
$var wire 1 /" baud_clk_tick $end
$var wire 1 $ clk $end
$var wire 1 A reset $end
$var wire 1 ? tx $end
$var wire 1 *" tx_done_tick $end
$var wire 1 N" tx_start $end
$var wire 8 O" tx_data [7:0] $end
$var reg 4 P" d_baud_clk_tick_cnt [3:0] $end
$var reg 8 Q" d_data [7:0] $end
$var reg 3 R" d_data_bit_idx [2:0] $end
$var reg 1 S" d_parity_bit $end
$var reg 5 T" d_state [4:0] $end
$var reg 1 U" d_tx $end
$var reg 1 V" d_tx_done_tick $end
$var reg 4 W" q_baud_clk_tick_cnt [3:0] $end
$var reg 8 X" q_data [7:0] $end
$var reg 3 Y" q_data_bit_idx [2:0] $end
$var reg 1 Z" q_parity_bit $end
$var reg 5 [" q_state [4:0] $end
$var reg 1 \" q_tx $end
$var reg 1 *" q_tx_done_tick $end
$upscope $end
$scope module uart_tx_fifo $end
$var wire 10 ]" addr_bits_wide_1 [9:0] $end
$var wire 1 $ clk $end
$var wire 1 ^" d_empty $end
$var wire 1 _" d_full $end
$var wire 1 )" empty $end
$var wire 1 T full $end
$var wire 8 `" rd_data [7:0] $end
$var wire 1 *" rd_en $end
$var wire 1 a" rd_en_prot $end
$var wire 1 A reset $end
$var wire 8 b" wr_data [7:0] $end
$var wire 1 t wr_en $end
$var wire 1 c" wr_en_prot $end
$var wire 10 d" d_wr_ptr [9:0] $end
$var wire 10 e" d_rd_ptr [9:0] $end
$var wire 8 f" d_data [7:0] $end
$var reg 1 g" q_empty $end
$var reg 1 h" q_full $end
$var reg 10 i" q_rd_ptr [9:0] $end
$var reg 10 j" q_wr_ptr [9:0] $end
$upscope $end
$upscope $end
$upscope $end
$scope module ram0 $end
$var wire 17 k" a_in [16:0] $end
$var wire 1 $ clk_in $end
$var wire 8 l" d_in [7:0] $end
$var wire 1 * en_in $end
$var wire 1 m" r_nw_in $end
$var wire 1 n" ram_bram_we $end
$var wire 8 o" ram_bram_dout [7:0] $end
$var wire 8 p" d_out [7:0] $end
$scope module ram_bram $end
$var wire 17 q" addr_a [16:0] $end
$var wire 1 $ clk $end
$var wire 8 r" din_a [7:0] $end
$var wire 8 s" dout_a [7:0] $end
$var wire 1 n" we $end
$var reg 17 t" q_addr_a [16:0] $end
$var integer 32 u" i [31:0] $end
$upscope $end
$upscope $end
$upscope $end
$upscope $end
$enddefinitions $end
#0
$dumpvars
b100000000000000000 u"
bx t"
bx s"
b0 r"
b0 q"
bx p"
bx o"
0n"
1m"
b0 l"
b0 k"
bx j"
bx i"
xh"
xg"
bx f"
bx e"
bx d"
xc"
bx b"
0a"
bx `"
x_"
x^"
b1 ]"
1\"
b1 ["
0Z"
b0 Y"
b0 X"
b0 W"
0V"
1U"
b1 T"
0S"
b0 R"
b0 Q"
b0 P"
bx O"
xN"
bx M"
bx L"
xK"
xJ"
bx I"
bx H"
bx G"
0F"
b0 E"
0D"
bx C"
xB"
xA"
x@"
b1 ?"
b1 >"
1="
b0 <"
b0 ;"
b0 :"
b1 9"
08"
b0 7"
06"
b0 5"
b0 4"
b0 3"
b0 2"
b1 1"
00"
0/"
bx ."
0-"
b0 ,"
0+"
0*"
x)"
bx ("
bx '"
0&"
bx %"
bx $"
x#"
x""
bx !"
bx ~
bx }
x|
bx {
0z
bx y
xx
xw
b1 v
0u
xt
bx s
bx r
xq
bx p
xo
bx n
bx m
bx l
bx k
bx j
bx i
0h
0g
b0 f
bx e
0d
0c
b0 b
b0 a
bx `
bx _
bx ^
bx ]
bx \
bx [
xZ
xY
bx X
0W
bx V
xU
xT
bx S
bx R
bx Q
b0 P
b0 O
bz N
bx M
b0 L
b0 K
bx J
b0 I
bx H
b0 G
b0 F
1E
bx D
bz C
1B
1A
x@
1?
b0 >
bx =
b0 <
0;
1:
b0 9
b0 8
07
06
x5
bx 4
03
x2
b0 1
bx 0
bx /
0.
x-
b0 ,
bx +
1*
0)
bx (
0'
b0 &
bz %
0$
z#
1"
0!
$end
#1000
b110111 =
b110111 D
b110111 H
1w
0x
0A"
1@"
1^"
0_"
b110111 (
b110111 R
b110111 +
b110111 p"
b0 }
b0 ~
b0 G"
b0 H"
0N"
b0 d"
b0 e"
0|
0c"
b0 _
b0 ]
b0 `
b0 ^
b1 e
b0 \
b0 M
b110111 o"
b110111 s"
b0 t"
0Y
0#"
1Z
1""
b0 %"
b0 $"
0B"
0K"
1U
1J"
b0 M"
b0 L"
02
0T
0h"
1)"
1g"
b0 j"
b0 i"
b0 4
b0 [
b0 n
b0 j
0o
b0 p
b0 {
0q
0t
b0 s
b0 '"
b0 b"
b0 l
b0 0
b0 Q
b0 i
b0 m
b0 k
15
b1 r
0@
1$
1!
#2000
0$
0!
#3000
1$
1!
#4000
0$
0!
#5000
1$
1!
#6000
0$
0!
#7000
1$
1!
#8000
0$
0!
#9000
1$
1!
#10000
0$
0!
#11000
1$
1!
#12000
0$
0!
#13000
1$
1!
#14000
0$
0!
#15000
1$
1!
#16000
0$
0!
#17000
1$
1!
#18000
0$
0!
#19000
1$
1!
#20000
0$
0!
#21000
1$
1!
#22000
0$
0!
#23000
1$
1!
#24000
0$
0!
#25000
1$
1!
#26000
0$
0!
#27000
1$
1!
#28000
0$
0!
#29000
1$
1!
#30000
0$
0!
#31000
1$
1!
#32000
0$
0!
#33000
1$
1!
#34000
0$
0!
#35000
1$
1!
#36000
0$
0!
#37000
1$
1!
#38000
0$
0!
#39000
1$
1!
#40000
0$
0!
#41000
1$
1!
#42000
0$
0!
#43000
1$
1!
#44000
0$
0!
#45000
1$
1!
#46000
0$
0!
#47000
1$
1!
#48000
0$
0!
#49000
1$
1!
#50000
0"
0$
0!
#51000
0B
1$
1!
#52000
0$
0!
#53000
b1 1
b1 P
b1 ,
b1 k"
b1 q"
b1 9
b1 >
b1 G
b1 K
b1 M
xE
0A
1$
1!
#54000
0$
0!
#55000
b11 1
b11 P
b11 ,
b11 k"
b11 q"
b11 9
b1 =
b1 D
b1 H
b11 >
b11 G
b11 K
0E
b1 (
b1 R
b1 +
b1 p"
b10 1"
bx0000000100110111 J
b11 M
0-
b1 o"
b1 s"
b1 t"
b1 2"
z="
1$
1!
#56000
0$
0!
#57000
b0 1
b0 P
b0 ,
b0 k"
b0 q"
b0 9
b0 =
b0 D
b0 H
b0 >
b0 G
b0 K
b0 (
b0 R
b0 +
b0 p"
b11 1"
bx000000010000000100110111 J
b100 M
b0 o"
b0 s"
b11 t"
b10 2"
1$
1!
#58000
0$
0!
#59000
b100 1
b100 P
b100 ,
b100 k"
b100 q"
b100 9
b110111 =
b110111 D
b110111 H
b100 >
b100 G
b100 K
b110111 (
b110111 R
b110111 +
b110111 p"
b100 1"
b100 I
b0 M
b10000000100110111 J
b110111 o"
b110111 s"
b0 t"
b11 2"
1$
1!
#60000
0$
0!
#61000
b101 1
b101 P
b101 ,
b101 k"
b101 q"
b101 9
b11101111 =
b11101111 D
b11101111 H
b101 >
b101 G
b101 K
b11101111 (
b11101111 R
b11101111 +
b11101111 p"
b101 1"
b1 M
b11101111 o"
b11101111 s"
b100 t"
b100 2"
1$
1!
#62000
0$
0!
#63000
b110 1
b110 P
b110 ,
b110 k"
b110 q"
b110 9
b10000 =
b10000 D
b10000 H
b110 >
b110 G
b110 K
b10000 (
b10000 R
b10000 +
b10000 p"
b110 1"
b10000000111101111 J
b10 M
b10000 o"
b10000 s"
b101 t"
b101 2"
1$
1!
#64000
0$
0!
#65000
b111 1
b111 P
b111 ,
b111 k"
b111 q"
b111 9
b0 =
b0 D
b0 H
b111 >
b111 G
b111 K
b0 (
b0 R
b0 +
b0 p"
b111 1"
b10001000011101111 J
b11 M
b0 o"
b0 s"
b110 t"
b110 2"
1$
1!
#66000
0$
0!
#67000
b0 1
b0 P
b0 ,
b0 k"
b0 q"
b0 9
b1011 =
b1011 D
b1011 H
b0 >
b0 G
b0 K
b1011 (
b1011 R
b1011 +
b1011 p"
b1000 1"
b1000011101111 J
b100 M
b1011 o"
b1011 s"
b111 t"
b111 2"
1$
1!
#68000
0$
0!
#69000
b1000 ,
b1000 k"
b1000 q"
b1000 9
b110111 =
b110111 D
b110111 H
b1000 >
b1000 G
b1000 K
b110111 (
b110111 R
b110111 +
b110111 p"
b1001 1"
b1000 I
b0 M
b1011000000000001000011101111 J
b110111 o"
b110111 s"
b0 t"
b1000 2"
1$
1!
#70000
0$
0!
#71000
b1 1
b1 P
b1001 ,
b1001 k"
b1001 q"
b1001 9
b10011 =
b10011 D
b10011 H
b1001 >
b1001 G
b1001 K
b10011 (
b10011 R
b10011 +
b10011 p"
b1010 1"
b1 M
b10011 o"
b10011 s"
b1000 t"
b1001 2"
1$
1!
#72000
0$
0!
#73000
b10 1
b10 P
b1010 ,
b1010 k"
b1010 q"
b1010 9
b101 =
b101 D
b101 H
b1010 >
b1010 G
b1010 K
b101 (
b101 R
b101 +
b101 p"
b1011 1"
b1011000000000001000000010011 J
b10 M
b101 o"
b101 s"
b1001 t"
b1010 2"
1$
1!
#74000
0$
0!
#75000
b11 1
b11 P
b1011 ,
b1011 k"
b1011 q"
b1011 9
b11110000 =
b11110000 D
b11110000 H
b1011 >
b1011 G
b1011 K
b11110000 (
b11110000 R
b11110000 +
b11110000 p"
b1100 1"
b1011000000000000010100010011 J
b11 M
b11110000 o"
b11110000 s"
b1010 t"
b1011 2"
1$
1!
#76000
0$
0!
#77000
b0 1
b0 P
b0 ,
b0 k"
b0 q"
b0 9
b1111 =
b1111 D
b1111 H
b0 >
b0 G
b0 K
b1111 (
b1111 R
b1111 +
b1111 p"
b1101 1"
b1011111100000000010100010011 J
b100 M
b1111 o"
b1111 s"
b1011 t"
b1100 2"
1$
1!
#78000
0$
0!
#79000
b100 1
b100 P
b1100 ,
b1100 k"
b1100 q"
b1100 9
b110111 =
b110111 D
b110111 H
b1100 >
b1100 G
b1100 K
b110111 (
b110111 R
b110111 +
b110111 p"
b1110 1"
b1100 I
b0 M
b1111111100000000010100010011 J
b110111 o"
b110111 s"
b0 t"
b1101 2"
1$
1!
#80000
0$
0!
#81000
b101 1
b101 P
b1101 ,
b1101 k"
b1101 q"
b1101 9
b10110111 =
b10110111 D
b10110111 H
b1101 >
b1101 G
b1101 K
b10110111 (
b10110111 R
b10110111 +
b10110111 p"
b1111 1"
b1 M
b10110111 o"
b10110111 s"
b1100 t"
b1110 2"
1$
1!
#82000
0$
0!
#83000
b110 1
b110 P
b1110 ,
b1110 k"
b1110 q"
b1110 9
b110 =
b110 D
b110 H
b1110 >
b1110 G
b1110 K
b110 (
b110 R
b110 +
b110 p"
b10000 1"
b1111111100000000010110110111 J
b10 M
b110 o"
b110 s"
b1101 t"
b1111 2"
1$
1!
#84000
0$
0!
#85000
b111 1
b111 P
b1111 ,
b1111 k"
b1111 q"
b1111 9
b11 =
b11 D
b11 H
b1111 >
b1111 G
b1111 K
b11 (
b11 R
b11 +
b11 p"
b10001 1"
b1111111100000000011010110111 J
b11 M
b11 o"
b11 s"
b1110 t"
b10000 2"
1$
1!
#86000
0$
0!
#87000
b0 1
b0 P
b0 ,
b0 k"
b0 q"
b0 9
b0 =
b0 D
b0 H
b0 >
b0 G
b0 K
b0 (
b0 R
b0 +
b0 p"
b10010 1"
b1111000000110000011010110111 J
b100 M
b0 o"
b0 s"
b1111 t"
b10001 2"
1$
1!
#88000
0$
0!
#89000
b10000 ,
b10000 k"
b10000 q"
b10000 9
b110111 =
b110111 D
b110111 H
b10000 >
b10000 G
b10000 K
b110111 (
b110111 R
b110111 +
b110111 p"
b10011 1"
b10000 I
b0 M
b110000011010110111 J
b110111 o"
b110111 s"
b0 t"
b10010 2"
1$
1!
#90000
0$
0!
#91000
b1 1
b1 P
b10001 ,
b10001 k"
b10001 q"
b10001 9
b100011 =
b100011 D
b100011 H
b10001 >
b10001 G
b10001 K
b100011 (
b100011 R
b100011 +
b100011 p"
b10100 1"
b1 M
b100011 o"
b100011 s"
b10000 t"
b10011 2"
1$
1!
#92000
0$
0!
#93000
b10 1
b10 P
b10010 ,
b10010 k"
b10010 q"
b10010 9
b10000010 =
b10000010 D
b10000010 H
b10010 >
b10010 G
b10010 K
b10000010 (
b10000010 R
b10000010 +
b10000010 p"
b10101 1"
b110000011000100011 J
b10 M
b10000010 o"
b10000010 s"
b10001 t"
b10100 2"
1$
1!
#94000
0$
0!
#95000
b11 1
b11 P
b10011 ,
b10011 k"
b10011 q"
b10011 9
b10100110 =
b10100110 D
b10100110 H
b10011 >
b10011 G
b10011 K
b10100110 (
b10100110 R
b10100110 +
b10100110 p"
b10110 1"
b111000001000100011 J
b11 M
b10100110 o"
b10100110 s"
b10010 t"
b10101 2"
1$
1!
#96000
0$
0!
#97000
b0 1
b0 P
b0 ,
b0 k"
b0 q"
b0 9
b0 =
b0 D
b0 H
b0 >
b0 G
b0 K
b0 (
b0 R
b0 +
b0 p"
b10111 1"
b101001101000001000100011 J
b100 M
b0 o"
b0 s"
b10011 t"
b10110 2"
1$
1!
#98000
0$
0!
#99000
b100 1
b100 P
b10100 ,
b10100 k"
b10100 q"
b10100 9
b110111 =
b110111 D
b110111 H
b10100 >
b10100 G
b10100 K
b110111 (
b110111 R
b110111 +
b110111 p"
b11000 1"
b10100 I
b0 M
b110111 o"
b110111 s"
b0 t"
b10111 2"
1$
1!
#100000
0$
0!
#101000
b101 1
b101 P
b10101 ,
b10101 k"
b10101 q"
b10101 9
b1101111 =
b1101111 D
b1101111 H
b10101 >
b10101 G
b10101 K
b1101111 (
b1101111 R
b1101111 +
b1101111 p"
b11001 1"
b1 M
b1101111 o"
b1101111 s"
b10100 t"
b11000 2"
1$
1!
#102000
0$
0!
#103000
b110 1
b110 P
b10110 ,
b10110 k"
b10110 q"
b10110 9
b11110000 =
b11110000 D
b11110000 H
b10110 >
b10110 G
b10110 K
b11110000 (
b11110000 R
b11110000 +
b11110000 p"
b11010 1"
b101001101000001001101111 J
b10 M
b11110000 o"
b11110000 s"
b10101 t"
b11001 2"
1$
1!
#104000
0$
0!
#105000
b111 1
b111 P
b10111 ,
b10111 k"
b10111 q"
b10111 9
b10011111 =
b10011111 D
b10011111 H
b10111 >
b10111 G
b10111 K
b10011111 (
b10011111 R
b10011111 +
b10011111 p"
b11011 1"
b101001101111000001101111 J
b11 M
b10011111 o"
b10011111 s"
b10110 t"
b11010 2"
1$
1!
#106000
0$
0!
#107000
b0 1
b0 P
b0 ,
b0 k"
b0 q"
b0 9
b11111111 =
b11111111 D
b11111111 H
b0 >
b0 G
b0 K
b11111111 (
b11111111 R
b11111111 +
b11111111 p"
b11100 1"
b100111111111000001101111 J
b100 M
b11111111 o"
b11111111 s"
b10111 t"
b11011 2"
1$
1!
#108000
0$
0!
#109000
b11000 ,
b11000 k"
b11000 q"
b11000 9
b110111 =
b110111 D
b110111 H
b11000 >
b11000 G
b11000 K
b110111 (
b110111 R
b110111 +
b110111 p"
b11101 1"
b11000 I
b0 M
b11111111100111111111000001101111 J
b110111 o"
b110111 s"
b0 t"
b11100 2"
1$
1!
#110000
0$
0!
#111000
b1 1
b1 P
b11001 ,
b11001 k"
b11001 q"
b11001 9
b0 =
b0 D
b0 H
b11001 >
b11001 G
b11001 K
b0 (
b0 R
b0 +
b0 p"
b11110 1"
b1 M
b0 o"
b0 s"
b11000 t"
b11101 2"
1$
1!
#112000
0$
0!
#113000
b10 1
b10 P
b11010 ,
b11010 k"
b11010 q"
b11010 9
b11010 >
b11010 G
b11010 K
b11111 1"
b11111111100111111111000000000000 J
b10 M
b11001 t"
b11110 2"
1$
1!
#114000
0$
0!
#115000
b11 1
b11 P
b11011 ,
b11011 k"
b11011 q"
b11011 9
b11011 >
b11011 G
b11011 K
b100000 1"
b11111111100111110000000000000000 J
b11 M
b11010 t"
b11111 2"
1$
1!
#116000
0$
0!
#117000
b0 1
b0 P
b0 ,
b0 k"
b0 q"
b0 9
b0 >
b0 G
b0 K
b100001 1"
b11111111000000000000000000000000 J
b100 M
b11011 t"
b100000 2"
1$
1!
#118000
0$
0!
#119000
b100 1
b100 P
b11100 ,
b11100 k"
b11100 q"
b11100 9
b110111 =
b110111 D
b110111 H
b11100 >
b11100 G
b11100 K
b110111 (
b110111 R
b110111 +
b110111 p"
b100010 1"
b11100 I
b0 M
b0 J
b110111 o"
b110111 s"
b0 t"
b100001 2"
1$
1!
#120000
0$
0!
#121000
b101 1
b101 P
b11101 ,
b11101 k"
b11101 q"
b11101 9
b0 =
b0 D
b0 H
b11101 >
b11101 G
b11101 K
b0 (
b0 R
b0 +
b0 p"
b100011 1"
b1 M
b0 o"
b0 s"
b11100 t"
b100010 2"
1$
1!
#122000
0$
0!
#123000
b110 1
b110 P
b11110 ,
b11110 k"
b11110 q"
b11110 9
b11110 >
b11110 G
b11110 K
b100100 1"
b10 M
b11101 t"
b100011 2"
1$
1!
#124000
0$
0!
#125000
b111 1
b111 P
b11111 ,
b11111 k"
b11111 q"
b11111 9
b11111 >
b11111 G
b11111 K
b100101 1"
b11 M
b11110 t"
b100100 2"
1$
1!
#126000
0$
0!
#127000
b0 1
b0 P
b0 ,
b0 k"
b0 q"
b0 9
b0 >
b0 G
b0 K
b100110 1"
b100 M
b11111 t"
b100101 2"
1$
1!
#128000
0$
0!
#129000
b100000 ,
b100000 k"
b100000 q"
b100000 9
b110111 =
b110111 D
b110111 H
b100000 >
b100000 G
b100000 K
b110111 (
b110111 R
b110111 +
b110111 p"
b100111 1"
b100000 I
b0 M
b110111 o"
b110111 s"
b0 t"
b100110 2"
1$
1!
#130000
0$
0!
#131000
b1 1
b1 P
b100001 ,
b100001 k"
b100001 q"
b100001 9
b0 =
b0 D
b0 H
b100001 >
b100001 G
b100001 K
b0 (
b0 R
b0 +
b0 p"
b101000 1"
b1 M
b0 o"
b0 s"
b100000 t"
b100111 2"
1$
1!
#132000
0$
0!
#133000
b10 1
b10 P
b100010 ,
b100010 k"
b100010 q"
b100010 9
b100010 >
b100010 G
b100010 K
b101001 1"
b10 M
b100001 t"
b101000 2"
1$
1!
#134000
0$
0!
#135000
b11 1
b11 P
b100011 ,
b100011 k"
b100011 q"
b100011 9
b100011 >
b100011 G
b100011 K
b101010 1"
b11 M
b100010 t"
b101001 2"
1$
1!
#136000
0$
0!
#137000
b0 1
b0 P
b0 ,
b0 k"
b0 q"
b0 9
b0 >
b0 G
b0 K
b101011 1"
b100 M
b100011 t"
b101010 2"
1$
1!
#138000
0$
0!
#139000
b100 1
b100 P
b100100 ,
b100100 k"
b100100 q"
b100100 9
b110111 =
b110111 D
b110111 H
b100100 >
b100100 G
b100100 K
b110111 (
b110111 R
b110111 +
b110111 p"
b101100 1"
b100100 I
b0 M
b110111 o"
b110111 s"
b0 t"
b101011 2"
1$
1!
#140000
0$
0!
#141000
b101 1
b101 P
b100101 ,
b100101 k"
b100101 q"
b100101 9
b0 =
b0 D
b0 H
b100101 >
b100101 G
b100101 K
b0 (
b0 R
b0 +
b0 p"
b101101 1"
b1 M
b0 o"
b0 s"
b100100 t"
b101100 2"
1$
1!
#142000
0$
0!
#143000
b110 1
b110 P
b100110 ,
b100110 k"
b100110 q"
b100110 9
b100110 >
b100110 G
b100110 K
b101110 1"
b10 M
b100101 t"
b101101 2"
1$
1!
#144000
0$
0!
#145000
b111 1
b111 P
b100111 ,
b100111 k"
b100111 q"
b100111 9
b100111 >
b100111 G
b100111 K
b101111 1"
b11 M
b100110 t"
b101110 2"
1$
1!
#146000
0$
0!
#147000
b0 1
b0 P
b0 ,
b0 k"
b0 q"
b0 9
b0 >
b0 G
b0 K
b110000 1"
b100 M
b100111 t"
b101111 2"
1$
1!
#148000
0$
0!
#149000
b101000 ,
b101000 k"
b101000 q"
b101000 9
b110111 =
b110111 D
b110111 H
b101000 >
b101000 G
b101000 K
b110111 (
b110111 R
b110111 +
b110111 p"
b110001 1"
b101000 I
b0 M
b110111 o"
b110111 s"
b0 t"
b110000 2"
1$
1!
#150000
0$
0!
#151000
b1 1
b1 P
b101001 ,
b101001 k"
b101001 q"
b101001 9
b0 =
b0 D
b0 H
b101001 >
b101001 G
b101001 K
b0 (
b0 R
b0 +
b0 p"
b110010 1"
b1 M
b0 o"
b0 s"
b101000 t"
b110001 2"
1$
1!
#152000
0$
0!
#153000
b10 1
b10 P
b101010 ,
b101010 k"
b101010 q"
b101010 9
b101010 >
b101010 G
b101010 K
b110011 1"
b10 M
b101001 t"
b110010 2"
1$
1!
#154000
0$
0!
#155000
b11 1
b11 P
b101011 ,
b101011 k"
b101011 q"
b101011 9
b101011 >
b101011 G
b101011 K
b110100 1"
b11 M
b101010 t"
b110011 2"
1$
1!
#156000
0$
0!
#157000
b0 1
b0 P
b0 ,
b0 k"
b0 q"
b0 9
b0 >
b0 G
b0 K
b110101 1"
b100 M
b101011 t"
b110100 2"
1$
1!
#158000
0$
0!
#159000
b100 1
b100 P
b101100 ,
b101100 k"
b101100 q"
b101100 9
b110111 =
b110111 D
b110111 H
b1 7"
b1 P"
b101100 >
b101100 G
b101100 K
b110111 (
b110111 R
b110111 +
b110111 p"
b0 1"
1/"
b101100 I
b0 M
b110111 o"
b110111 s"
b0 t"
b110101 2"
1$
1!
#160000
0$
0!
#161000
b101 1
b101 P
b101101 ,
b101101 k"
b101101 q"
b101101 9
b0 =
b0 D
b0 H
b101101 >
b101101 G
b101101 K
b0 (
b0 R
b0 +
b0 p"
b1 1"
0/"
b1 M
b0 o"
b0 s"
b101100 t"
b1 W"
b1 <"
b0 2"
1$
1!
#162000
0$
0!
#163000
b110 1
b110 P
b101110 ,
b101110 k"
b101110 q"
b101110 9
b101110 >
b101110 G
b101110 K
b10 1"
b10 M
b101101 t"
b1 2"
1$
1!
#164000
0$
0!
#165000
b111 1
b111 P
b101111 ,
b101111 k"
b101111 q"
b101111 9
b101111 >
b101111 G
b101111 K
b11 1"
b11 M
b101110 t"
b10 2"
1$
1!
#166000
0$
0!
#167000
b0 1
b0 P
b0 ,
b0 k"
b0 q"
b0 9
b0 >
b0 G
b0 K
b100 1"
b100 M
b101111 t"
b11 2"
1$
1!
#168000
0$
0!
